%YAML 1.1
%TAG !u! tag:unity3d.com,2011:
--- !u!1045 &1
EditorBuildSettings:
  m_ObjectHideFlags: 0
  serializedVersion: 2
  m_Scenes:
  - enabled: 1
    path: Assets/Scenes/Esc_CocinandoEnSenas.unity
    guid: 191a602fc59dac14786eaa0f51efe27d
  m_configObjects: {}
